{
  "apiVersion" : "v1",
  "kind" : "ServiceAccount",
  "metadata" : {
    "annotations" : {
      "prometheus.io/path" : "/metrics",
      "prometheus.io/port" : "8080",
      "app.quarkus.io/vcs-url" : "https://gitlab.com/mdas_tfm/short_term_processor.git",
      "prometheus.io/scrape" : "true"
    },
    "labels" : {
      "app.kubernetes.io/name" : "st-processor",
      "app.kubernetes.io/version" : "tfm-final"
    },
    "name" : "st-processor"
  }
}{
  "apiVersion" : "v1",
  "kind" : "Service",
  "metadata" : {
    "annotations" : {
      "prometheus.io/path" : "/metrics",
      "prometheus.io/port" : "8080",
      "app.quarkus.io/vcs-url" : "https://gitlab.com/mdas_tfm/short_term_processor.git",
      "prometheus.io/scrape" : "true"
    },
    "labels" : {
      "app.kubernetes.io/name" : "st-processor",
      "app.kubernetes.io/version" : "tfm-final"
    },
    "name" : "st-processor"
  },
  "spec" : {
    "ports" : [ {
      "name" : "http",
      "port" : 8080,
      "targetPort" : 8080
    } ],
    "selector" : {
      "app.kubernetes.io/name" : "st-processor",
      "app.kubernetes.io/version" : "tfm-final"
    },
    "type" : "ClusterIP"
  }
}{
  "apiVersion" : "rbac.authorization.k8s.io/v1",
  "kind" : "RoleBinding",
  "metadata" : {
    "annotations" : {
      "prometheus.io/path" : "/metrics",
      "prometheus.io/port" : "8080",
      "app.quarkus.io/vcs-url" : "https://gitlab.com/mdas_tfm/short_term_processor.git",
      "prometheus.io/scrape" : "true"
    },
    "labels" : {
      "app.kubernetes.io/name" : "st-processor",
      "app.kubernetes.io/version" : "tfm-final"
    },
    "name" : "st-processor:view"
  },
  "roleRef" : {
    "kind" : "ClusterRole",
    "apiGroup" : "rbac.authorization.k8s.io",
    "name" : "view"
  },
  "subjects" : [ {
    "kind" : "ServiceAccount",
    "name" : "st-processor"
  } ]
}{
  "apiVersion" : "apps/v1",
  "kind" : "Deployment",
  "metadata" : {
    "annotations" : {
      "prometheus.io/path" : "/metrics",
      "prometheus.io/port" : "8080",
      "app.quarkus.io/vcs-url" : "https://gitlab.com/mdas_tfm/short_term_processor.git",
      "prometheus.io/scrape" : "true"
    },
    "labels" : {
      "app.kubernetes.io/name" : "st-processor",
      "app.kubernetes.io/version" : "tfm-final"
    },
    "name" : "st-processor"
  },
  "spec" : {
    "replicas" : 1,
    "selector" : {
      "matchLabels" : {
        "app.kubernetes.io/name" : "st-processor",
        "app.kubernetes.io/version" : "tfm-final"
      }
    },
    "template" : {
      "metadata" : {
        "annotations" : {
          "prometheus.io/path" : "/metrics",
          "prometheus.io/port" : "8080",
          "app.quarkus.io/vcs-url" : "https://gitlab.com/mdas_tfm/short_term_processor.git",
          "prometheus.io/scrape" : "true"
        },
        "labels" : {
          "app.kubernetes.io/name" : "st-processor",
          "app.kubernetes.io/version" : "tfm-final"
        }
      },
      "spec" : {
        "containers" : [ {
          "env" : [ {
            "name" : "KUBERNETES_NAMESPACE",
            "valueFrom" : {
              "fieldRef" : {
                "fieldPath" : "metadata.namespace"
              }
            }
          } ],
          "image" : "registry.gitlab.com/mdas_tfm/short_term_processor:1.0.8",
          "imagePullPolicy" : "Always",
          "livenessProbe" : {
            "failureThreshold" : 3,
            "httpGet" : {
              "path" : "/health/live",
              "port" : 8080,
              "scheme" : "HTTP"
            },
            "initialDelaySeconds" : 0,
            "periodSeconds" : 30,
            "successThreshold" : 1,
            "timeoutSeconds" : 10
          },
          "name" : "st-processor",
          "ports" : [ {
            "containerPort" : 8080,
            "name" : "http",
            "protocol" : "TCP"
          } ],
          "readinessProbe" : {
            "failureThreshold" : 3,
            "httpGet" : {
              "path" : "/health/ready",
              "port" : 8080,
              "scheme" : "HTTP"
            },
            "initialDelaySeconds" : 20,
            "periodSeconds" : 45,
            "successThreshold" : 1,
            "timeoutSeconds" : 10
          }
        } ],
        "serviceAccount" : "st-processor"
      }
    }
  }
}{
  "apiVersion" : "extensions/v1beta1",
  "kind" : "Ingress",
  "metadata" : {
    "annotations" : {
      "prometheus.io/path" : "/metrics",
      "prometheus.io/port" : "8080",
      "app.quarkus.io/vcs-url" : "https://gitlab.com/mdas_tfm/short_term_processor.git",
      "prometheus.io/scrape" : "true"
    },
    "labels" : {
      "app.kubernetes.io/name" : "st-processor",
      "app.kubernetes.io/part-of" : "org.mdas"
    },
    "name" : "st-processor"
  },
  "spec" : {
    "rules" : [ {
      "host" : "tfm.deshome.net",
      "http" : {
        "paths" : [ {
          "backend" : {
            "serviceName" : "st-processor",
            "servicePort" : 8080
          },
          "path" : "/"
        } ]
      }
    } ]
  }
}