{
  "apiVersion" : "v1",
  "kind" : "ServiceAccount",
  "metadata" : {
    "annotations" : {
      "prometheus.io/path" : "/metrics",
      "prometheus.io/port" : "2112",
      "app.kubernetes.io/vcs-url" : "https://gitlab.com/mdas_tfm/sensor.git",
      "prometheus.io/scrape" : "true",
      "app.kubernetes.io/version" : "1.6.16"
    },
    "labels" : {
      "app.kubernetes.io/name" : "sensor-barcelona",
      "app.kubernetes.io/part-of" : "org.mdas"
    },
    "name" : "sensor-barcelona"
  }
}{
  "apiVersion" : "v1",
  "kind" : "Service",
  "metadata" : {
    "annotations" : {
      "prometheus.io/path" : "/metrics",
      "prometheus.io/port" : "2112",
      "app.kubernetes.io/vcs-url" : "https://gitlab.com/mdas_tfm/sensor.git",
      "prometheus.io/scrape" : "true",
      "app.kubernetes.io/version" : "1.6.16"
    },
    "labels" : {
      "app.kubernetes.io/name" : "sensor-barcelona",
      "app.kubernetes.io/part-of" : "org.mdas"
    },
    "name" : "sensor-barcelona"
  },
  "spec" : {
    "ports" : [ {
      "name" : "http",
      "port" : 2112,
      "targetPort" : 2112
    } ],
    "selector" : {
      "app.kubernetes.io/name" : "sensor-barcelona",
      "app.kubernetes.io/part-of" : "org.mdas"
    },
    "type" : "ClusterIP"
  }
}{
  "apiVersion" : "rbac.authorization.k8s.io/v1",
  "kind" : "RoleBinding",
  "metadata" : {
    "annotations" : {
      "prometheus.io/path" : "/metrics",
      "prometheus.io/port" : "2112",
      "app.kubernetes.io/vcs-url" : "https://gitlab.com/mdas_tfm/sensor.git",
      "prometheus.io/scrape" : "true",
      "app.kubernetes.io/version" : "1.6.16"
    },
    "labels" : {
      "app.kubernetes.io/name" : "sensor-barcelona",
      "app.kubernetes.io/part-of" : "org.mdas"
    },
    "name" : "sensor-barcelona:view"
  },
  "roleRef" : {
    "kind" : "ClusterRole",
    "apiGroup" : "rbac.authorization.k8s.io",
    "name" : "view"
  },
  "subjects" : [ {
    "kind" : "ServiceAccount",
    "name" : "sensor-barcelona"
  } ]
}{
  "apiVersion" : "apps/v1",
  "kind" : "Deployment",
  "metadata" : {
    "annotations" : {
      "prometheus.io/path" : "/metrics",
      "prometheus.io/port" : "2112",
      "app.kubernetes.io/vcs-url" : "https://gitlab.com/mdas_tfm/sensor.git",
      "prometheus.io/scrape" : "true",
      "app.kubernetes.io/version" : "1.6.16"
    },
    "labels" : {
      "app.kubernetes.io/name" : "sensor-barcelona",
      "app.kubernetes.io/part-of" : "org.mdas"
    },
    "name" : "sensor-barcelona"
  },
  "spec" : {
    "replicas" : 1,
    "selector" : {
      "matchLabels" : {
        "app.kubernetes.io/name" : "sensor-barcelona",
        "app.kubernetes.io/part-of" : "org.mdas"
      }
    },
    "template" : {
      "metadata" : {
        "annotations" : {
          "prometheus.io/path" : "/metrics",
          "prometheus.io/port" : "2112",
          "app.kubernetes.io/vcs-url" : "https://gitlab.com/mdas_tfm/sensor.git",
          "prometheus.io/scrape" : "true",
          "app.kubernetes.io/version" : "1.6.16"
        },
        "labels" : {
          "app.kubernetes.io/name" : "sensor-barcelona",
          "app.kubernetes.io/part-of" : "org.mdas"
        }
      },
      "spec" : {
        "containers" : [ {
          "env": [ {
            "name": "KUBERNETES_NAMESPACE",
            "valueFrom": {
              "fieldRef": {
                "fieldPath": "metadata.namespace"
              }
            }
          },
          {
            "name": "SENSOR_AREA_NAME",
            "value": "Barcelona"
          },
          {
            "name": "SENSOR_GW_ADDRESS",
            "value": "gateway.tfm.svc.cluster.local"
          },
          {
            "name": "LOCATION",
            "value": "41.23,2.11"
          },
          {
            "name": "SENSOR_METRICS",
            "value": "true"
          },
          {
            "name": "SENSOR_INTERVAL",
            "value": "15s"
          }],
          "image" : "registry.gitlab.com/mdas_tfm/sensor:1.6.16",
          "imagePullPolicy" : "Always",
          "livenessProbe" : {
            "failureThreshold" : 3,
            "httpGet" : {
              "path" : "/healthz",
              "port" : "monitoring-port",
              "scheme" : "HTTP"
            },
            "initialDelaySeconds" : 0,
            "periodSeconds" : 30,
            "successThreshold" : 1,
            "timeoutSeconds" : 10
          },
          "name" : "sensor",
          "ports" : [ {
            "containerPort" : 2112,
            "name" : "monitoring-port",
            "protocol" : "TCP"
          } ],
          "readinessProbe" : {
            "failureThreshold" : 3,
            "httpGet" : {
              "path" : "/healthz",
              "port" : "monitoring-port",
              "scheme" : "HTTP"
            },
            "initialDelaySeconds" : 20,
            "periodSeconds" : 45,
            "successThreshold" : 1,
            "timeoutSeconds" : 10
          }
        } ],
        "serviceAccount" : "sensor-barcelona"
      }
    }
  }
}{
  "apiVersion" : "extensions/v1beta1",
  "kind" : "Ingress",
  "metadata" : {
    "annotations" : {
      "prometheus.io/path" : "/metrics",
      "prometheus.io/port" : "2112",
      "app.kubernetes.io/vcs-url" : "https://gitlab.com/mdas_tfm/sensor.git",
      "prometheus.io/scrape" : "true",
      "app.kubernetes.io/version" : "1.6.16"
    },
    "labels" : {
      "app.kubernetes.io/name" : "sensor-barcelona",
      "app.kubernetes.io/part-of" : "org.mdas"
    },
    "name" : "sensor-barcelona"
  },
  "spec" : {
    "rules" : [ {
      "host" : "",
      "http" : {
        "paths" : [ {
          "backend" : {
            "serviceName" : "sensor-barcelona",
            "servicePort" : 2112
          },
          "path" : "/"
        } ]
      }
    } ]
  }
}